EMSE 4572 / 6572 - Tidy Data
…
gdp %>% 
    pivot_longer(
        names_to = "year", 
        values_to = "gdp", 
        cols = -country
    ) %>% 
    filter(!is.na(gdp)) %>% 
    group_by(year) %>% 
    summarise(mean_gdp = mean(gdp))

#> # A tibble: 58 × 2
#>    year       mean_gdp
#>    <chr>         <dbl>
#>  1 1960  102413905682.
#>  2 1961  105726674157.
#>  3 1962  111565123596.
#>  4 1963  117354202247.
#>  5 1964  125198550562.
#>  6 1965  126750204301.
#>  7 1966  130028802083.
#>  8 1967  134405412371.
#>  9 1968  140740898990.
#> 10 1969  149369777778.
#> # ℹ 48 more rows
…
